<?xml version="1.0" encoding="UTF-8" standalone="no"?>
<svg width="24px" height="24px" viewBox="0 0 24 24" version="1.1" xmlns="http://www.w3.org/2000/svg" xmlns:xlink="http://www.w3.org/1999/xlink">
    <!-- Generator: Sketch 39.1 (31720) - http://www.bohemiancoding.com/sketch -->
    <title>ic_community</title>
    <desc>Created with Sketch.</desc>
    <defs>
        <ellipse id="path-1" cx="12" cy="12" rx="12" ry="12"></ellipse>
        <mask id="mask-2" maskContentUnits="userSpaceOnUse" maskUnits="objectBoundingBox" x="0" y="0" width="24" height="24" fill="white">
            <use xlink:href="#path-1"></use>
        </mask>
    </defs>
    <g id="Symbols" stroke="none" stroke-width="1" fill="none" fill-rule="evenodd">
        <g id="ic_community" stroke="#FFFFFF">
            <g>
                <use id="Oval-307" mask="url(#mask-2)" stroke-width="8" opacity="0" xlink:href="#path-1"></use>
                <circle id="Oval" stroke-width="2" cx="9" cy="12" r="6"></circle>
                <circle id="Oval" stroke-width="2" cx="15" cy="12" r="6"></circle>
            </g>
        </g>
    </g>
</svg>