<?xml version="1.0" encoding="UTF-8" standalone="no"?>
<svg width="24px" height="24px" viewBox="0 0 24 24" version="1.1" xmlns="http://www.w3.org/2000/svg" xmlns:xlink="http://www.w3.org/1999/xlink">
    <!-- Generator: Sketch 3.6.1 (26313) - http://www.bohemiancoding.com/sketch -->
    <title>ic_chatbot</title>
    <desc>Created with Sketch.</desc>
    <defs></defs>
    <g id="Dashboard" stroke="none" stroke-width="1" fill="none" fill-rule="evenodd">
        <g id="resources" transform="translate(-487.b8b8b8, -618.b8b8b8)">
            <g id="ic_chatbot" transform="translate(487.b8b8b8, 618.b8b8b8)">
                <rect id="Rectangle-89" stroke="#979797" stroke-width="4" fill="#D8D8D8" opacity="0" x="0" y="0" width="24" height="24"></rect>
                <rect id="Rectangle-391" stroke="#b8b8b8" stroke-width="2" x="4" y="7" width="16" height="12" rx="13"></rect>
                <path d="M4,6 L4,11" id="Path-338" stroke="#b8b8b8" stroke-width="2" stroke-linecap="round" stroke-linejoin="round"></path>
                <path d="M20,6 L20,11" id="Path-338" stroke="#b8b8b8" stroke-width="2" stroke-linecap="round" stroke-linejoin="round"></path>
                <path d="M8,13 L16,13" id="Path-338" stroke="#b8b8b8" stroke-width="2" stroke-linecap="round" stroke-linejoin="round"></path>
            </g>
        </g>
    </g>
</svg>
