<svg version="1.1"
	 xmlns="http://www.w3.org/2000/svg" xmlns:xlink="http://www.w3.org/1999/xlink" xmlns:a="http://ns.adobe.com/AdobeSVGViewerExtensions/3.0/"
	 x="0px" y="0px" width="188px" height="188px" viewBox="0 0 188 188" enable-background="new 0 0 188 188" xml:space="preserve">
<g id="XMLID_15_">
	<defs>
		<circle id="XMLID_16_" cx="94" cy="94" r="94"/>
	</defs>
	<clipPath id="XMLID_91_">
		<use xlink:href="#XMLID_16_"  overflow="visible"/>
	</clipPath>
	<g id="XMLID_17_" clip-path="url(#XMLID_91_)">
		<circle id="XMLID_90_" fill-rule="evenodd" clip-rule="evenodd" fill="#4595D6" cx="94" cy="94" r="94"/>
		<g id="XMLID_74_">
			<path id="XMLID_89_" fill-rule="evenodd" clip-rule="evenodd" fill="#BC825B" d="M82.6,84.2h57.7c2.8,0,5,2.2,5,5v0
				c0,2.8-2.2,5-5,5H82.6V84.2z"/>
			<path id="XMLID_88_" fill-rule="evenodd" clip-rule="evenodd" fill="#BC825B" d="M82.6,63h39c2.4,0,4.4,2,4.4,4.4v0
				c0,2.4-2,4.4-4.4,4.4h-39V63z"/>
			<path id="XMLID_87_" fill-rule="evenodd" clip-rule="evenodd" fill="#BC825B" d="M82.6,73h49c2.8,0,5,2.2,5,5v0c0,2.8-2.2,5-5,5
				h-49V73z"/>
			<path id="XMLID_86_" fill-rule="evenodd" clip-rule="evenodd" fill="#BC825B" d="M82.6,95.4h45.9c2.8,0,5,2.2,5,5v0
				c0,2.8-2.2,5-5,5H82.6V95.4z"/>
			<rect id="XMLID_85_" x="0" y="75.5" fill-rule="evenodd" clip-rule="evenodd" fill="#BC825B" width="59" height="34.9"/>
			<g id="XMLID_76_">
				<g id="XMLID_78_">
					<path id="XMLID_79_" fill-rule="evenodd" clip-rule="evenodd" fill="#BC825B" d="M81.7,107.9c-0.7,0-1.2-0.6-1.2-1.2
						s0.6-1.2,1.2-1.2h3.1V63H64.9C51.2,63,40,74.2,40,87.9v6.2c0,13.8,11.2,24.9,24.9,24.9h19.9v-11.2H81.7z"/>
				</g>
			</g>
			<path id="XMLID_75_" fill-rule="evenodd" clip-rule="evenodd" fill="#BC825B" d="M65.5,119.1h39.9c3.1,0,5.6-2.5,5.6-5.6v0
				c0-3.1-2.5-5.6-5.6-5.6H65.5V119.1z"/>
		</g>
		<g id="XMLID_58_">
			<path id="XMLID_73_" fill-rule="evenodd" clip-rule="evenodd" fill="#E59F89" d="M88.7,95.3V38.5c0-2.8,2.2-5,5-5h0
				c2.8,0,5,2.2,5,5v56.7H88.7z"/>
			<path id="XMLID_72_" fill-rule="evenodd" clip-rule="evenodd" fill="#E59F89" d="M67.5,95.3v-38c0-2.4,2-4.4,4.4-4.4h0
				c2.4,0,4.4,2,4.4,4.4v38H67.5z"/>
			<path id="XMLID_71_" fill-rule="evenodd" clip-rule="evenodd" fill="#E59F89" d="M77.5,95.3v-48c0-2.8,2.2-5,5-5h0
				c2.8,0,5,2.2,5,5v48H77.5z"/>
			<path id="XMLID_70_" fill-rule="evenodd" clip-rule="evenodd" fill="#E59F89" d="M99.9,95.3V50.4c0-2.8,2.2-5,5-5h0
				c2.8,0,5,2.2,5,5v44.9H99.9z"/>
			<rect id="XMLID_69_" x="80" y="120" fill-rule="evenodd" clip-rule="evenodd" fill="#E59F89" width="34.9" height="68"/>
			<g id="XMLID_60_">
				<g id="XMLID_62_">
					<path id="XMLID_63_" fill-rule="evenodd" clip-rule="evenodd" fill="#E59F89" d="M112.4,94v3.1c0,0.7-0.6,1.2-1.2,1.2
						c-0.7,0-1.2-0.6-1.2-1.2V94H67.5v19.9c0,13.8,11.2,24.9,24.9,24.9h6.2c13.8,0,24.9-11.2,24.9-24.9V94H112.4z"/>
				</g>
			</g>
			<path id="XMLID_59_" fill-rule="evenodd" clip-rule="evenodd" fill="#E59F89" d="M123.6,113.3V73.4c0-3.1-2.5-5.6-5.6-5.6h0
				c-3.1,0-5.6,2.5-5.6,5.6v39.9H123.6z"/>
		</g>
		<g id="XMLID_34_">
			<path id="XMLID_57_" fill-rule="evenodd" clip-rule="evenodd" fill="#F7D0C9" d="M98.4,81.7v58.7c0,2.8-2.2,5-5,5h0
				c-2.8,0-5-2.2-5-5V81.7H98.4z"/>
			<path id="XMLID_56_" fill-rule="evenodd" clip-rule="evenodd" fill="#F7D0C9" d="M119.6,81.7v40c0,2.4-2,4.4-4.4,4.4h0
				c-2.4,0-4.4-2-4.4-4.4v-40H119.6z"/>
			<path id="XMLID_54_" fill-rule="evenodd" clip-rule="evenodd" fill="#F7D0C9" d="M109.7,81.7v50c0,2.8-2.2,5-5,5h0
				c-2.8,0-5-2.2-5-5v-50H109.7z"/>
			<path id="XMLID_53_" fill-rule="evenodd" clip-rule="evenodd" fill="#F7D0C9" d="M87.2,81.7v46.9c0,2.8-2.2,5-5,5h0
				c-2.8,0-5-2.2-5-5V81.7H87.2z"/>
			<rect id="XMLID_52_" x="72.3" fill-rule="evenodd" clip-rule="evenodd" fill="#F7D0C9" width="34.9" height="63.5"/>
			<g id="XMLID_36_">
				<g id="XMLID_39_">
					<path id="XMLID_40_" fill-rule="evenodd" clip-rule="evenodd" fill="#F7D0C9" d="M94.7,40.1h-6.2c-13.8,0-24.9,11.2-24.9,24.9
						V85h11.2v-3.1c0-0.7,0.6-1.2,1.2-1.2c0.7,0,1.2,0.6,1.2,1.2V85h42.4V65.1C119.6,51.3,108.5,40.1,94.7,40.1z"/>
				</g>
			</g>
			<path id="XMLID_35_" fill-rule="evenodd" clip-rule="evenodd" fill="#F7D0C9" d="M63.5,65.7v39.9c0,3.1,2.5,5.6,5.6,5.6h0
				c3.1,0,5.6-2.5,5.6-5.6V65.7H63.5z"/>
		</g>
		<g id="XMLID_18_">
			<path id="XMLID_33_" fill-rule="evenodd" clip-rule="evenodd" fill="#F39A72" d="M104,88.2H46.8c-2.8,0-5,2.2-5,5v0
				c0,2.8,2.2,5,5,5H104V88.2z"/>
			<path id="XMLID_32_" fill-rule="evenodd" clip-rule="evenodd" fill="#F39A72" d="M104,67H65.5c-2.4,0-4.4,2-4.4,4.4v0
				c0,2.4,2,4.4,4.4,4.4H104V67z"/>
			<path id="XMLID_31_" fill-rule="evenodd" clip-rule="evenodd" fill="#F39A72" d="M104,77H55.6c-2.8,0-5,2.2-5,5v0
				c0,2.8,2.2,5,5,5H104V77z"/>
			<path id="XMLID_30_" fill-rule="evenodd" clip-rule="evenodd" fill="#F39A72" d="M104,99.4H58.7c-2.8,0-5,2.2-5,5v0
				c0,2.8,2.2,5,5,5H104V99.4z"/>
			<rect id="XMLID_29_" x="128" y="79.5" fill-rule="evenodd" clip-rule="evenodd" fill="#F39A72" width="60" height="34.9"/>
			<g id="XMLID_20_">
				<g id="XMLID_22_">
					<path id="XMLID_23_" fill-rule="evenodd" clip-rule="evenodd" fill="#F39A72" d="M122,67h-19.7v42.4h2.5c0.7,0,1.2,0.6,1.2,1.2
						s-0.6,1.2-1.2,1.2h-2.5v11.2h19.9c13.8,0,24.9-11.2,24.9-24.9v-6C147.2,78.3,135.9,67,122,67z"/>
				</g>
			</g>
			<path id="XMLID_19_" fill-rule="evenodd" clip-rule="evenodd" fill="#F39A72" d="M121.6,123.1H81.7c-3.1,0-5.6-2.5-5.6-5.6v0
				c0-3.1,2.5-5.6,5.6-5.6h39.9V123.1z"/>
		</g>
	</g>
</g>
</svg>
