<?xml version="1.0" encoding="UTF-8" standalone="no"?>
<svg width="32px" height="32px" viewBox="0 0 32 32" version="1.1" xmlns="http://www.w3.org/2000/svg" xmlns:xlink="http://www.w3.org/1999/xlink">
    <!-- Generator: Sketch 39.1 (31720) - http://www.bohemiancoding.com/sketch -->
    <title>ic_faq_big</title>
    <desc>Created with Sketch.</desc>
    <defs>
        <rect id="path-1" x="0" y="0" width="32" height="32"></rect>
        <mask id="mask-2" maskContentUnits="userSpaceOnUse" maskUnits="objectBoundingBox" x="0" y="0" width="32" height="32" fill="white">
            <use xlink:href="#path-1"></use>
        </mask>
    </defs>
    <g id="Symbols" stroke="none" stroke-width="1" fill="none" fill-rule="evenodd">
        <g id="ic_faq_big">
            <g>
                <use id="Rectangle-37" stroke="#979797" mask="url(#mask-2)" stroke-width="2" fill="#D8D8D8" opacity="0" xlink:href="#path-1"></use>
                <path d="M14.1357822,22.0337794 C15.3956241,23.2510572 17.1117404,24 19.0045631,24 L20.4126519,24 L25,29 L25,24 C28.3137085,24 31,20.8581267 31,17 C31,13.9088368 28.9941411,11.2856509 26.2187045,10.3583315 L26.2187045,10.3583315" id="Combined-Shape" stroke="#FFFFFF" stroke-width="2" stroke-linecap="round" stroke-linejoin="round"></path>
                <path d="M1,12 C1,7.02943725 5.03056614,3 9.99025355,3 L17.0097464,3 C21.9749264,3 26,7.02834436 26,12 C26,16.9705627 21.969099,21 16.9995388,21 L14.6123047,21 L8,27 L8,21 C4.13400675,21 1,16.9716556 1,12 L1,12 Z" id="Combined-Shape" stroke="#FFFFFF" stroke-width="2" stroke-linecap="round" stroke-linejoin="round"></path>
                <g id="Group-18" transform="translate(12.000000, 8.000000)">
                    <path d="M-4.54747351e-13,2 C-1.10040066e-08,1 0.5,-1.8369702e-16 2,0 C3.5,1.83697015e-16 4,1 4,2 C4,4.5 2,4 2,5.5 L2,6" id="Path-8" stroke="#FFFFFF" stroke-width="2"></path>
                    <circle id="Oval-3" fill="#FFFFFF" cx="2" cy="8" r="1"></circle>
                </g>
            </g>
        </g>
    </g>
</svg>