<?xml version="1.0" encoding="UTF-8" standalone="no"?>
<svg width="24px" height="24px" viewBox="0 0 24 24" version="1.1" xmlns="http://www.w3.org/2000/svg" xmlns:xlink="http://www.w3.org/1999/xlink">
    <!-- Generator: Sketch 39.1 (31720) - http://www.bohemiancoding.com/sketch -->
    <title>ic_nav_blog</title>
    <desc>Created with Sketch.</desc>
    <defs>
        <ellipse id="path-1" cx="12" cy="12" rx="12" ry="12"></ellipse>
        <mask id="mask-2" maskContentUnits="userSpaceOnUse" maskUnits="objectBoundingBox" x="0" y="0" width="24" height="24" fill="white">
            <use xlink:href="#path-1"></use>
        </mask>
    </defs>
    <g id="Symbols" stroke="none" stroke-width="1" fill="none" fill-rule="evenodd">
        <g id="ic_nav_blog">
            <g id="ic_tutorials">
                <use id="Oval-307" stroke="#FFFFFF" mask="url(#mask-2)" stroke-width="8" opacity="0" xlink:href="#path-1"></use>
                <path d="M8,9.63012695 L8,5 L19,5 L19,16.9941413 C19,18.1019465 18.0998238,19 17.007983,19 L6,19" id="Rectangle" stroke="#FFFFFF" stroke-width="2" stroke-linecap="round" stroke-linejoin="round"></path>
                <path d="M4,10 L8,10 L8,17.0026083 C8,18.1057373 7.11227036,19 6,19 C4.8954305,19 4,18.1041422 4,17.0026083 L4,10 L4,10 Z" id="Combined-Shape" stroke="#FFFFFF" stroke-width="2" stroke-linecap="round" stroke-linejoin="round"></path>
                <rect id="Rectangle-2" fill="#FFFFFF" x="11" y="8" width="5" height="2" rx="1"></rect>
                <rect id="Rectangle-2-Copy" fill="#FFFFFF" x="11" y="12" width="3" height="2" rx="1"></rect>
            </g>
        </g>
    </g>
</svg>