<?xml version="1.0" encoding="UTF-8" standalone="no"?>
<svg width="24px" height="24px" viewBox="0 0 24 24" version="1.1" xmlns="http://www.w3.org/2000/svg" xmlns:xlink="http://www.w3.org/1999/xlink">
    <!-- Generator: Sketch 39.1 (31720) - http://www.bohemiancoding.com/sketch -->
    <title>ic_imagecard</title>
    <desc>Created with Sketch.</desc>
    <defs>
        <rect id="path-1" x="0" y="0" width="24" height="24" rx="12"></rect>
        <mask id="mask-2" maskContentUnits="userSpaceOnUse" maskUnits="objectBoundingBox" x="0" y="0" width="24" height="24" fill="white">
            <use xlink:href="#path-1"></use>
        </mask>
    </defs>
    <g id="Symbols" stroke="none" stroke-width="1" fill="none" fill-rule="evenodd">
        <g id="ic_imagecard">
            <g>
                <use id="Rectangle-2164" stroke="#979797" mask="url(#mask-2)" stroke-width="8" fill="#D8D8D8" opacity="0" xlink:href="#path-1"></use>
                <rect id="Rectangle-Copy" stroke="#000000" stroke-width="2" stroke-linecap="round" stroke-linejoin="round" x="5" y="6" width="14" height="12"></rect>
                <polyline id="Path-2" stroke="#000000" stroke-width="2" stroke-linecap="round" stroke-linejoin="round" points="5 17 10 13 14 15 18 13"></polyline>
                <circle id="Oval" fill="#000000" cx="14.5" cy="10.5" r="1.5"></circle>
            </g>
        </g>
    </g>
</svg>