<?xml version="1.0" encoding="UTF-8" standalone="no"?>
<svg width="24px" height="24px" viewBox="0 0 24 24" version="1.1" xmlns="http://www.w3.org/2000/svg" xmlns:xlink="http://www.w3.org/1999/xlink">
    <!-- Generator: Sketch 3.6.1 (26313) - http://www.bohemiancoding.com/sketch -->
    <title>ic_drag_ver</title>
    <desc>Created with Sketch.</desc>
    <defs></defs>
    <g id="Dashboard" stroke="none" stroke-width="1" fill="none" fill-rule="evenodd">
        <g id="resources" transform="translate(-802.000000, -562.000000)">
            <g id="ic_drag-copy" transform="translate(802.000000, 562.000000)">
                <g id="Group-12" stroke="#979797" stroke-width="4" fill="#BFBFBF" opacity="0">
                    <rect id="Rectangle-1143" x="0" y="0" width="24" height="24"></rect>
                </g>
                <path d="M12,14 L12,19" id="Path-987" stroke="#000000" stroke-width="2" stroke-linecap="round" stroke-linejoin="round"></path>
                <path d="M12,4 L12,9" id="Path-987" stroke="#000000" stroke-width="2" stroke-linecap="round" stroke-linejoin="round"></path>
                <circle id="Oval-779" stroke="#000000" stroke-width="2" cx="12" cy="12" r="2"></circle>
                <path d="M11,2 L13,4 L11,6" id="Path-1007" stroke="#000000" stroke-width="2" stroke-linecap="round" stroke-linejoin="round" transform="translate(12.000000, 4.000000) rotate(-90.000000) translate(-12.000000, -4.000000) "></path>
                <path d="M11,18 L13,20 L11,22" id="Path-1007" stroke="#000000" stroke-width="2" stroke-linecap="round" stroke-linejoin="round" transform="translate(12.000000, 20.000000) rotate(-270.000000) translate(-12.000000, -20.000000) "></path>
            </g>
        </g>
    </g>
</svg>