<?xml version="1.0" encoding="UTF-8" standalone="no"?>
<svg width="24px" height="24px" viewBox="0 0 24 24" version="1.1" xmlns="http://www.w3.org/2000/svg" xmlns:xlink="http://www.w3.org/1999/xlink">
    <!-- Generator: Sketch 3.6.1 (26313) - http://www.bohemiancoding.com/sketch -->
    <title>ic_info</title>
    <desc>Created with Sketch.</desc>
    <defs></defs>
    <g id="Dashboard" stroke="none" stroke-width="1" fill="none" fill-rule="evenodd">
        <g id="resources" transform="translate(-583.000000, -421.000000)">
            <g id="ic_info" transform="translate(583.000000, 421.000000)">
                <g id="Group">
                    <rect id="Rectangle-2164" stroke="#979797" fill="#D8D8D8" opacity="0" x="0" y="0" width="24" height="24"></rect>
                    <ellipse id="Oval-227" stroke="#000000" stroke-width="2" cx="12" cy="12" rx="10" ry="10"></ellipse>
                </g>
                <g id="Group-15-Copy" transform="translate(9.500000, 7.500000)">
                    <path d="M0,2.5 C6.91405202e-17,1.02050781 1.09049479,-4.08215618e-16 2.5,0 C3.90950521,4.08215618e-16 5,1.10056559 5,2.5 C5,4.22293917 2.5,4.98463949 2.5,5.86507161 L2.5,6.66666667" id="Path-689" stroke="#000000" stroke-width="2" stroke-linecap="round" stroke-linejoin="round"></path>
                    <rect id="Rectangle-1762" fill="#000000" x="1.5" y="8.5" width="2" height="2" rx="1"></rect>
                </g>
            </g>
        </g>
    </g>
</svg>