<?xml version="1.0" encoding="UTF-8"?>
<svg width="16px" height="16px" viewBox="0 0 16 16" version="1.1" xmlns="http://www.w3.org/2000/svg" xmlns:xlink="http://www.w3.org/1999/xlink">
    <!-- Generator: sketchtool 40.1 (33804) - http://www.bohemiancoding.com/sketch -->
    <title>713C87B5-8B67-4AAF-81C8-202E74D2FB42</title>
    <desc>Created with sketchtool.</desc>
    <defs>
        <rect id="path-1" x="0" y="0" width="16" height="16"></rect>
        <mask id="mask-2" maskContentUnits="userSpaceOnUse" maskUnits="objectBoundingBox" x="0" y="0" width="16" height="16" fill="white">
            <use xlink:href="#path-1"></use>
        </mask>
    </defs>
    <g id="Symbols" stroke="none" stroke-width="1" fill="none" fill-rule="evenodd">
        <g id="ic_add_small" stroke-width="2">
            <use id="Rectangle-3216" stroke="#979797" mask="url(#mask-2)" fill="#D8D8D8" opacity="0" xlink:href="#path-1"></use>
            <path d="M8,3 L8,13" id="Path-2" stroke="#000000" stroke-linecap="round" stroke-linejoin="round"></path>
            <path d="M3,8 L13,8" id="Path-2" stroke="#000000" stroke-linecap="round" stroke-linejoin="round"></path>
        </g>
    </g>
</svg>