<?xml version="1.0" encoding="UTF-8"?>
<svg width="24px" height="24px" viewBox="0 0 24 24" version="1.1" xmlns="http://www.w3.org/2000/svg" xmlns:xlink="http://www.w3.org/1999/xlink">
    <!-- Generator: Sketch 40.1 (33804) - http://www.bohemiancoding.com/sketch -->
    <title>ic_arrow_left</title>
    <desc>Created with Sketch.</desc>
    <defs>
        <rect id="path-1" x="0" y="0" width="24" height="24"></rect>
        <mask id="mask-2" maskContentUnits="userSpaceOnUse" maskUnits="objectBoundingBox" x="0" y="0" width="24" height="24" fill="white">
            <use xlink:href="#path-1"></use>
        </mask>
    </defs>
    <g id="Symbols" stroke="none" stroke-width="1" fill="none" fill-rule="evenodd">
        <g id="ic_arrow_left" stroke-width="2">
            <use id="Rectangle-3279" stroke="#979797" mask="url(#mask-2)" fill="#D8D8D8" opacity="0" xlink:href="#path-1"></use>
            <polyline id="Path-2136" stroke="#000000" stroke-linecap="round" stroke-linejoin="round" points="14 6 8 12 14 18"></polyline>
        </g>
    </g>
</svg>