<?xml version="1.0" encoding="UTF-8" standalone="no"?>
<svg width="24px" height="24px" viewBox="0 0 24 24" version="1.1" xmlns="http://www.w3.org/2000/svg" xmlns:xlink="http://www.w3.org/1999/xlink">
    <!-- Generator: Sketch 3.6.1 (26313) - http://www.bohemiancoding.com/sketch -->
    <title>ic_trash</title>
    <desc>Created with Sketch.</desc>
    <defs></defs>
    <g id="Dashboard" stroke="none" stroke-width="1" fill="none" fill-rule="evenodd">
        <g id="resources" transform="translate(-749.000000, -607.000000)">
            <g id="ic_trash" transform="translate(749.000000, 607.000000)">
                <path d="M0,0 L24,0 L24,24 L0,24 L0,0 Z" id="Fill-1" stroke="#979797" stroke-width="4" fill="#BFBFBF" opacity="0"></path>
                <path d="M17,9 L17,19 L7,19 L7,9 L7,9" id="Rectangle-2036" stroke="#000000" stroke-width="2" stroke-linecap="round" stroke-linejoin="round"></path>
                <path d="M14,3 L14,5 L10,5 L10,3" id="Rectangle-2036-Copy" stroke="#000000" stroke-width="2" stroke-linecap="round" stroke-linejoin="round" transform="translate(12.000000, 4.000000) scale(1, -1) translate(-12.000000, -4.000000) "></path>
                <path d="M6.12475586,6 L18.1247559,6" id="Path-1050" stroke="#000000" stroke-width="2" stroke-linecap="round" stroke-linejoin="round"></path>
            </g>
        </g>
    </g>
</svg>