<?xml version="1.0" encoding="UTF-8" standalone="no"?>
<svg width="36px" height="36px" viewBox="0 0 36 36" version="1.1" xmlns="http://www.w3.org/2000/svg" xmlns:xlink="http://www.w3.org/1999/xlink">
    <!-- Generator: Sketch 39.1 (31720) - http://www.bohemiancoding.com/sketch -->
    <title>ic_ifttt_round</title>
    <desc>Created with Sketch.</desc>
    <defs></defs>
    <g id="Dashboard" stroke="none" stroke-width="1" fill="none" fill-rule="evenodd">
        <g id="ic_ifttt_round">
            <g>
                <circle id="Oval-601" fill="#D9D9D9" cx="18" cy="18" r="18"></circle>
                <circle id="Oval-601" fill="#FFFFFF" cx="18" cy="18" r="17"></circle>
                <g id="Group-4" transform="translate(8.000000, 10.000000)">
                    <rect id="Rectangle" fill="#000000" x="9" y="0" width="9" height="9"></rect>
                    <polygon id="Rectangle-Copy" fill="#FF4300" points="0 0 9 0 9 9"></polygon>
                    <polygon id="Rectangle-Copy-2" fill="#33CCFF" points="9 9 18 9 18 18"></polygon>
                </g>
            </g>
        </g>
    </g>
</svg>