<?xml version="1.0" encoding="UTF-8" standalone="no"?>
<svg width="36px" height="36px" viewBox="0 0 36 36" version="1.1" xmlns="http://www.w3.org/2000/svg" xmlns:xlink="http://www.w3.org/1999/xlink">
    <!-- Generator: Sketch 39.1 (31720) - http://www.bohemiancoding.com/sketch -->
    <title>ic_wordpress_round</title>
    <desc>Created with Sketch.</desc>
    <defs></defs>
    <g id="Symbols" stroke="none" stroke-width="1" fill="none" fill-rule="evenodd">
        <g id="ic_wordpress_round">
            <g>
                <circle id="Oval-601" fill="#000000" cx="18" cy="18" r="18"></circle>
                <circle id="Oval-601" fill="#FFFFFF" cx="18" cy="18" r="17"></circle>
                <g id="wordpress-logo-notext-cmyk" transform="translate(3.000000, 3.000000)" fill="#3E3D39">
                    <path d="M0.609101759,15.01813 C0.609101759,20.7215408 3.92338568,25.651076 8.73047111,27.9862707 L1.85683417,9.15377073 C1.05734925,10.9457431 0.609101759,12.929022 0.609101759,15.01813" id="Fill-1"></path>
                    <path d="M24.7459146,14.2913857 C24.7459146,12.5099284 24.1060214,11.2771206 23.5578807,10.3173656 C22.8275917,9.12984045 22.1424158,8.12531156 22.1424158,6.93778643 C22.1424158,5.61339573 23.1467751,4.38041834 24.5622399,4.38041834 C24.6261784,4.38041834 24.6867249,4.38805025 24.7489673,4.39195101 C22.1853241,2.04301884 18.7697902,0.608728643 15.0184523,0.608728643 C9.98410553,0.608728643 5.55556281,3.19187563 2.97903015,7.10348367 C3.31737814,7.11433794 3.63605276,7.12095226 3.90639196,7.12095226 C5.4132701,7.12095226 7.74676884,6.93778643 7.74676884,6.93778643 C8.52318844,6.89233417 8.61494095,8.03338945 7.83903015,8.12531156 C7.83903015,8.12531156 7.05803141,8.21655528 6.1898593,8.26217714 L11.4368819,23.8706193 L14.5907261,14.4133266 L12.3459271,8.26217714 C11.5695075,8.21655528 10.8344698,8.12531156 10.8344698,8.12531156 C10.0578807,8.0793505 10.1489548,6.89233417 10.9258832,6.93778643 C10.9258832,6.93778643 13.3051734,7.12095226 14.7209774,7.12095226 C16.2275163,7.12095226 18.5615239,6.93778643 18.5615239,6.93778643 C19.3382827,6.89233417 19.4298656,8.03338945 18.653446,8.12531156 C18.653446,8.12531156 17.8717688,8.21655528 17.0044447,8.26217714 L22.211951,23.7517312 L23.6494636,18.9495641 C24.271549,16.9556005 24.7459146,15.5245327 24.7459146,14.2913857" id="Fill-3"></path>
                    <path d="M15.2714585,16.2786162 L10.9475578,28.8414177 C12.2388769,29.2211476 13.6041407,29.428566 15.0184183,29.428566 C16.6964209,29.428566 18.3059058,29.1388926 19.8036256,28.611782 C19.7652965,28.5498788 19.7295113,28.4844139 19.7003405,28.4131828 L15.2714585,16.2786162 Z" id="Fill-5"></path>
                    <path d="M27.6628813,8.10528204 C27.7247845,8.5642142 27.7597217,9.05655716 27.7597217,9.58705967 C27.7597217,11.0486552 27.4859906,12.6923989 26.6639491,14.7480961 L22.2628813,27.4730333 C26.5467569,24.9753637 29.427718,20.3341451 29.427718,15.0180961 C29.427718,12.5127946 28.7876552,10.1575873 27.6628813,8.10528204" id="Fill-7"></path>
                </g>
            </g>
        </g>
    </g>
</svg>