<?xml version="1.0" encoding="UTF-8"?>
<svg width="24px" height="24px" viewBox="0 0 24 24" version="1.1" xmlns="http://www.w3.org/2000/svg" xmlns:xlink="http://www.w3.org/1999/xlink">
    <!-- Generator: sketchtool 40.3 (33839) - http://www.bohemiancoding.com/sketch -->
    <title>D99EEA4A-7D1B-4767-96BA-CCDAE249513A</title>
    <desc>Created with sketchtool.</desc>
    <defs>
        <rect id="path-1" x="0" y="0" width="24" height="24"></rect>
        <mask id="mask-2" maskContentUnits="userSpaceOnUse" maskUnits="objectBoundingBox" x="0" y="0" width="24" height="24" fill="white">
            <use xlink:href="#path-1"></use>
        </mask>
    </defs>
    <g id="Symbols" stroke="none" stroke-width="1" fill="none" fill-rule="evenodd">
        <g id="ic_ok">
            <use id="Rectangle-1476" stroke="#979797" mask="url(#mask-2)" stroke-width="2" fill="#D8D8D8" opacity="0" xlink:href="#path-1"></use>
            <g id="Group-16" transform="translate(3.000000, 5.000000)">
                <polygon id="Fill-1" fill="#FFFFFF" opacity="0" points="0 0 16 0 16 16 0 16"></polygon>
                <polyline id="Path-522" stroke="#5DC991" stroke-width="2" stroke-linecap="round" stroke-linejoin="round" points="3 8 6.5 12 15 3"></polyline>
            </g>
        </g>
    </g>
</svg>