<?xml version="1.0" encoding="UTF-8" standalone="no"?>
<svg width="16px" height="16px" viewBox="0 0 16 16" version="1.1" xmlns="http://www.w3.org/2000/svg" xmlns:xlink="http://www.w3.org/1999/xlink">
    <!-- Generator: Sketch 3.6.1 (26313) - http://www.bohemiancoding.com/sketch -->
    <title>ic_add_small</title>
    <desc>Created with Sketch.</desc>
    <defs></defs>
    <g id="Dashboard" stroke="none" stroke-width="1" fill="none" fill-rule="evenodd">
        <g id="resources" transform="translate(-322.000000, -334.000000)" fill="#000000">
            <g id="Group-2" transform="translate(324.000000, 336.000000)">
                <rect id="Rectangle-931" x="5" y="0" width="2" height="12" rx="3"></rect>
                <rect id="Rectangle-931" x="0" y="5" width="12" height="2" rx="3"></rect>
            </g>
        </g>
    </g>
</svg>