<?xml version="1.0" encoding="UTF-8" standalone="no"?>
<svg width="24px" height="24px" viewBox="0 0 24 24" version="1.1" xmlns="http://www.w3.org/2000/svg" xmlns:xlink="http://www.w3.org/1999/xlink">
    <!-- Generator: Sketch 39.1 (31720) - http://www.bohemiancoding.com/sketch -->
    <title>ic_parameter</title>
    <desc>Created with Sketch.</desc>
    <defs>
        <rect id="path-1" x="0" y="0" width="24" height="24"></rect>
        <mask id="mask-2" maskContentUnits="userSpaceOnUse" maskUnits="objectBoundingBox" x="0" y="0" width="24" height="24" fill="white">
            <use xlink:href="#path-1"></use>
        </mask>
    </defs>
    <g id="Symbols" stroke="none" stroke-width="1" fill="none" fill-rule="evenodd">
        <g id="ic_parameter">
            <g>
                <use id="Rectangle-20" stroke="#979797" mask="url(#mask-2)" stroke-width="8" fill="#D8D8D8" opacity="0" xlink:href="#path-1"></use>
                <path d="M3,18 L2,18 L2,15 C2,13.6 1,12 1,12 C1,12 2,10.4 2,9 L2,6 L3,6" id="Rectangle-1183" stroke="#000000" stroke-width="2" stroke-linecap="round" stroke-linejoin="round"></path>
                <path d="M7,18 L6,18 L6,15 C6,13.6 5,12 5,12 C5,12 6,10.4 6,9 L6,6 L7,6" id="Rectangle-1183" stroke="#000000" stroke-width="2" stroke-linecap="round" stroke-linejoin="round"></path>
                <path d="M23,18 L22,18 L22,15 C22,13.6 21,12 21,12 C21,12 22,10.4 22,9 L22,6 L23,6" id="Rectangle-1183" stroke="#000000" stroke-width="2" stroke-linecap="round" stroke-linejoin="round" transform="translate(22.000000, 12.000000) scale(-1, 1) translate(-22.000000, -12.000000) "></path>
                <path d="M19,18 L18,18 L18,15 C18,13.6 17,12 17,12 C17,12 18,10.4 18,9 L18,6 L19,6" id="Rectangle-1183" stroke="#000000" stroke-width="2" stroke-linecap="round" stroke-linejoin="round" transform="translate(18.000000, 12.000000) scale(-1, 1) translate(-18.000000, -12.000000) "></path>
                <circle id="Oval-7" fill="#000000" cx="9" cy="13" r="1"></circle>
                <circle id="Oval-7-Copy" fill="#000000" cx="12" cy="13" r="1"></circle>
                <circle id="Oval-7-Copy-2" fill="#000000" cx="15" cy="13" r="1"></circle>
            </g>
        </g>
    </g>
</svg>