<?xml version="1.0" encoding="UTF-8" standalone="no"?>
<svg width="16px" height="16px" viewBox="0 0 16 16" version="1.1" xmlns="http://www.w3.org/2000/svg" xmlns:xlink="http://www.w3.org/1999/xlink">
    <!-- Generator: Sketch 39.1 (31720) - http://www.bohemiancoding.com/sketch -->
    <title>ic_link_small</title>
    <desc>Created with Sketch.</desc>
    <defs>
        <rect id="path-1" x="0" y="0" width="16" height="16"></rect>
        <mask id="mask-2" maskContentUnits="userSpaceOnUse" maskUnits="objectBoundingBox" x="0" y="0" width="16" height="16" fill="white">
            <use xlink:href="#path-1"></use>
        </mask>
    </defs>
    <g id="Symbols" stroke="none" stroke-width="1" fill="none" fill-rule="evenodd">
        <g id="ic_link_small">
            <use id="Rectangle-3216" stroke="#979797" mask="url(#mask-2)" stroke-width="4" fill="#D8D8D8" opacity="0" xlink:href="#path-1"></use>
            <g id="Group-4" transform="translate(8.000000, 8.000000) rotate(-315.000000) translate(-8.000000, -8.000000) translate(5.000000, 2.000000)" stroke="#000000" stroke-width="2" stroke-linecap="round" stroke-linejoin="round">
                <path d="M0.171572875,3.87867966 L0.171572877,2.1109127 C0.171572878,1.13460197 0.958134251,0.343145744 1.93042836,0.343145744 L4.06957183,0.343145744 C5.04096089,0.343145744 5.82842736,1.12779531 5.82842741,2.1109127 L5.8284275,3.87867965" id="Rectangle-1538"></path>
                <path d="M0.171572879,11.6568542 L0.171572879,9.8890873 C0.171572879,8.91277657 0.958134192,8.12132034 1.93042823,8.12132034 L4.06957154,8.12132034 C5.04096053,8.12132034 5.82842692,8.90596991 5.82842696,9.8890873 L5.82842703,11.6568542" id="Rectangle-1538" transform="translate(3.000000, 9.889087) scale(1, -1) translate(-3.000000, -9.889087) "></path>
                <path d="M3,3.87867966 L3,8.12132015" id="Path-520"></path>
            </g>
        </g>
    </g>
</svg>