<?xml version="1.0" encoding="UTF-8" standalone="no"?>
<svg width="16px" height="16px" viewBox="0 0 16 16" version="1.1" xmlns="http://www.w3.org/2000/svg" xmlns:xlink="http://www.w3.org/1999/xlink">
    <!-- Generator: Sketch 39.1 (31720) - http://www.bohemiancoding.com/sketch -->
    <title>ic_share_small</title>
    <desc>Created with Sketch.</desc>
    <defs>
        <rect id="path-1" x="0" y="0" width="16" height="16"></rect>
        <mask id="mask-2" maskContentUnits="userSpaceOnUse" maskUnits="objectBoundingBox" x="0" y="0" width="16" height="16" fill="white">
            <use xlink:href="#path-1"></use>
        </mask>
    </defs>
    <g id="Symbols" stroke="none" stroke-width="1" fill="none" fill-rule="evenodd">
        <g id="ic_share_small">
            <g>
                <use id="Rectangle-49-Copy-3" stroke="#979797" mask="url(#mask-2)" stroke-width="4" fill="#FFFFFF" opacity="0" xlink:href="#path-1"></use>
                <polyline id="Rectangle-51" stroke="#000000" stroke-width="2" stroke-linecap="round" stroke-linejoin="round" points="12 8 12 13 4 13 4 8"></polyline>
                <path d="M8,10 L8,4" id="Path-9" stroke="#000000" stroke-width="2" stroke-linecap="round" stroke-linejoin="round"></path>
                <polyline id="Path-10" stroke="#000000" stroke-width="2" stroke-linecap="round" points="6 5 8 3 10 5"></polyline>
            </g>
        </g>
    </g>
</svg>