<?xml version="1.0" encoding="UTF-8" standalone="no"?>
<svg width="80px" height="32px" viewBox="0 0 80 32" version="1.1" xmlns="http://www.w3.org/2000/svg" xmlns:xlink="http://www.w3.org/1999/xlink">
    <!-- Generator: Sketch 3.8.3 (29802) - http://www.bohemiancoding.com/sketch -->
    <title>pic_plgn_help_top_img3</title>
    <desc>Created with Sketch.</desc>
    <defs></defs>
    <g id="Dashboard" stroke="none" stroke-width="1" fill="none" fill-rule="evenodd">
        <g id="pic_plgn_help_top_img3">
            <path d="M0,7.99240541 C0,3.57832179 3.5797863,0 8.00005106,0 L71.9999489,0 C76.4182551,0 80,3.57766074 80,7.99240541 L80,32 L0,32 L0,7.99240541 L0,7.99240541 Z" id="Combined-Shape" fill="#78D5F4" fill-rule="evenodd"></path>
            <rect id="Rectangle-3198" fill="#35C67C" fill-rule="evenodd" x="0" y="20" width="80" height="12"></rect>
            <g id="Page-1" stroke-width="1" fill-rule="evenodd" transform="translate(17.000000, 9.000000)">
                <g id="Group-16" transform="translate(0.296296, 0.131687)">
                    <path d="M19.6277728,9.8408823 C19.6277728,13.8652444 17.0340609,17.5598617 13.2462091,18.9225613 C9.44518848,20.2900016 5.09160823,19.0816395 2.52634074,15.9690798 C-0.0415604938,12.8533597 -0.374992593,8.32068477 1.71198683,4.86257778 C3.79106502,1.41711276 7.90234074,-0.402804938 11.8519045,0.374149794 C16.3176823,1.25276708 19.6277728,5.29293169 19.6277728,9.8408823" id="Fill-2" fill="#F2EDD7"></path>
                    <polygon id="Fill-4" fill="#535462" points="7.61115391 12.5481613 6.10675885 7.91803786 10.0452609 5.0562107 13.9842897 7.91803786 12.4793679 12.5481613"></polygon>
                    <path d="M13.5588346,1.49349136 L10.0448922,2.02182058 L6.53200329,1.49349136 L6.87649712,0.701260905 C8.92713086,0.00753251029 11.2016329,0.0233349794 13.2385712,0.757623045 L13.5588346,1.49349136 Z" id="Fill-6" fill="#535462"></path>
                    <path d="M19.0567243,10.1396543 L17.286321,7.05869959 L16.5009383,3.5942716 L17.3642798,3.62693004 C18.7564774,5.28460905 19.5687243,7.40898765 19.6256132,9.57392593 L19.0567243,10.1396543 Z" id="Fill-8" fill="#535462"></path>
                    <path d="M12.3638519,18.604879 L14.7879506,16.0064263 L17.8678519,14.2365498 L18.0906667,15.0714469 C16.9160165,16.8892576 15.1245432,18.2909366 13.0718025,18.9820313 L12.3638519,18.604879 Z" id="Fill-10" fill="#535462"></path>
                    <path d="M2.01697449,14.2114239 L5.11057119,15.9597037 L7.55257942,18.5397202 L6.79300741,18.9516379 C4.7502749,18.2352593 2.96828313,16.8219918 1.81575638,14.9883786 L2.01697449,14.2114239 Z" id="Fill-12" fill="#535462"></path>
                    <path d="M3.35117695,3.63061728 L2.65060082,7.11453498 L0.956576132,10.2371029 L0.329218107,9.64293004 C0.375572016,7.47851852 1.16569547,5.34571193 2.55051852,3.68065844 L3.35117695,3.63061728 Z" id="Fill-14" fill="#535462"></path>
                </g>
            </g>
            <polyline id="Rectangle-3199" stroke="#FFFFFF" stroke-width="2" stroke-linecap="round" stroke-linejoin="round" points="44 21 44 6 44 6 74 6 74 21"></polyline>
            <g id="Group-19" opacity="0.334829757" stroke-width="1" fill-rule="evenodd" transform="translate(45.000000, 7.000000)" fill="#FFFFFF">
                <rect id="Rectangle-3200" x="1" y="0" width="2" height="13"></rect>
                <rect id="Rectangle-3200-Copy-7" x="0" y="2" width="28" height="2"></rect>
                <rect id="Rectangle-3200-Copy-8" x="0" y="6" width="28" height="2"></rect>
                <rect id="Rectangle-3200-Copy-9" x="0" y="10" width="28" height="2"></rect>
                <rect id="Rectangle-3200-Copy-2" x="9" y="0" width="2" height="13"></rect>
                <rect id="Rectangle-3200-Copy-4" x="17" y="0" width="2" height="13"></rect>
                <rect id="Rectangle-3200-Copy" x="5" y="0" width="2" height="13"></rect>
                <rect id="Rectangle-3200-Copy-3" x="13" y="0" width="2" height="13"></rect>
                <rect id="Rectangle-3200-Copy-5" x="21" y="0" width="2" height="13"></rect>
                <rect id="Rectangle-3200-Copy-6" x="25" y="0" width="2" height="13"></rect>
            </g>
        </g>
    </g>
</svg>